%YAML 1.1
%TAG !u! tag:unity3d.com,2011:
--- !u!114 &11400000
MonoBehaviour:
  m_ObjectHideFlags: 0
  m_CorrespondingSourceObject: {fileID: 0}
  m_PrefabInstance: {fileID: 0}
  m_PrefabAsset: {fileID: 0}
  m_GameObject: {fileID: 0}
  m_Enabled: 1
  m_EditorHideFlags: 0
  m_Script: {fileID: 11500000, guid: 9d0c328bc26ccf2409a3be0c7de32063, type: 3}
  m_Name: DemoPoolerData
  m_EditorClassIdentifier: 
  data:
  - initialSpawn: 3
    prefab: {fileID: 4250727380177633928, guid: 39163ae8abeb1f046b536c0f1e87dc92,
      type: 3}
