%YAML 1.1
%TAG !u! tag:unity3d.com,2011:
--- !u!114 &11400000
MonoBehaviour:
  m_ObjectHideFlags: 0
  m_CorrespondingSourceObject: {fileID: 0}
  m_PrefabInstance: {fileID: 0}
  m_PrefabAsset: {fileID: 0}
  m_GameObject: {fileID: 0}
  m_Enabled: 1
  m_EditorHideFlags: 0
  m_Script: {fileID: 11500000, guid: bb9be74fa1b4807478a999c01a1d91d6, type: 3}
  m_Name: BtnClick_SingleClip
  m_EditorClassIdentifier: 
  channel: {fileID: 11400000, guid: 105e1874ff3e3ea4197b54e4397862a5, type: 2}
  clip: {fileID: 8300000, guid: 47c3ea8e8b5811d49b00a8b111f829c4, type: 3}
