%YAML 1.1
%TAG !u! tag:unity3d.com,2011:
--- !u!114 &11400000
MonoBehaviour:
  m_ObjectHideFlags: 0
  m_CorrespondingSourceObject: {fileID: 0}
  m_PrefabInstance: {fileID: 0}
  m_PrefabAsset: {fileID: 0}
  m_GameObject: {fileID: 0}
  m_Enabled: 1
  m_EditorHideFlags: 0
  m_Script: {fileID: 11500000, guid: 34b276298b10ae3419f5ccb6bf857f86, type: 3}
  m_Name: Explosion_RandomClip
  m_EditorClassIdentifier: 
  channel: {fileID: 11400000, guid: 105e1874ff3e3ea4197b54e4397862a5, type: 2}
  randomSet:
  - weight: 0.33
    clip: {fileID: 8300000, guid: 652db456c5164fe4484c6899330ef781, type: 3}
  - weight: 0.33
    clip: {fileID: 8300000, guid: 64d4d696e43e7484cb6fb14b64d7b1be, type: 3}
  - weight: 0.33
    clip: {fileID: 8300000, guid: 2267a520d249dd94799e824c23dc86f1, type: 3}
